<!DOCTYPE html>
<html>
<head>
<title>Page Title</title>
</head>
<body>

<script type = "text/javascript">
var num = 1235;
var temp = num;
var count = 1;
var remainder = 0;
while(num >= 10){
count++;
num = num/10;  
}
document.write("The no.of.digits in " + temp + " is " + count);
</script>

</body>
</html>